\select@language {polish}
\contentsline {chapter}{\numberline {1}Wst\IeC {\k e}p}{1}{chapter.1}
\contentsline {section}{\numberline {1.1}Cel pracy}{2}{section.1.1}
\contentsline {chapter}{\numberline {2}Cz\IeC {\k e}\IeC {\'s}\IeC {\'c} 1 - studia literaturowe}{3}{chapter.2}
\contentsline {section}{\numberline {2.1}Przyk\IeC {\l }adowy podrozdzia\IeC {\l }}{3}{section.2.1}
\contentsline {chapter}{\numberline {3}Podsumowanie}{5}{chapter.3}
\contentsline {chapter}{\numberline {4}Cz\IeC {\k e}\IeC {\'s}\IeC {\'c} 2 - badania w\IeC {\l }asne}{7}{chapter.4}
\contentsline {section}{\numberline {4.1}Przyk\IeC {\l }adowy podrozdzia\IeC {\l }}{7}{section.4.1}
\contentsline {chapter}{\numberline {A}Dodatki}{9}{appendix.A}
\contentsline {section}{\numberline {A.1}Przyk\IeC {\l }adowa strona z dodatkami}{9}{section.A.1}
\contentsline {chapter}{Bibliografia}{11}{appendix*.3}
\contentsline {chapter}{Spis rysunk\IeC {\'o}w}{12}{appendix*.3}
