\relax 
\catcode`"\active
\ifx\hyper@anchor\@undefined
\global \let \oldcontentsline\contentsline
\gdef \contentsline#1#2#3#4{\oldcontentsline{#1}{#2}{#3}}
\global \let \oldnewlabel\newlabel
\gdef \newlabel#1#2{\newlabelxx{#1}#2}
\gdef \newlabelxx#1#2#3#4#5#6{\oldnewlabel{#1}{{#2}{#3}}}
\AtEndDocument{\let \contentsline\oldcontentsline
\let \newlabel\oldnewlabel}
\else
\global \let \hyper@last\relax 
\fi

\select@language{polish}
\@writefile{toc}{\select@language{polish}}
\@writefile{lof}{\select@language{polish}}
\@writefile{lot}{\select@language{polish}}
\@writefile{toc}{\contentsline {chapter}{\numberline {1}Wst\IeC {\k e}p}{1}{chapter.1}}
\@writefile{lof}{\addvspace {10\p@ }}
\@writefile{lot}{\addvspace {10\p@ }}
\newlabel{cha:wprowadzenie}{{1}{1}{Wstęp\relax }{chapter.1}{}}
\@writefile{toc}{\contentsline {section}{\numberline {1.1}Cel pracy}{2}{section.1.1}}
\newlabel{sec:cel_pracy}{{1.1}{2}{Cel pracy\relax }{section.1.1}{}}
\@writefile{toc}{\contentsline {chapter}{\numberline {2}Cz\IeC {\k e}\IeC {\'s}\IeC {\'c} 1 - studia literaturowe}{3}{chapter.2}}
\@writefile{lof}{\addvspace {10\p@ }}
\@writefile{lot}{\addvspace {10\p@ }}
\newlabel{cha:studia_literaturowe}{{2}{3}{Część 1 - studia literaturowe\relax }{chapter.2}{}}
\@writefile{toc}{\contentsline {section}{\numberline {2.1}Przyk\IeC {\l }adowy podrozdzia\IeC {\l }}{3}{section.2.1}}
\newlabel{sec:Przykladowy_podrozdzial_2}{{2.1}{3}{Przykładowy podrozdział\relax }{section.2.1}{}}
\newlabel{eq:f_resonator}{{2.1}{3}{Przykładowy podrozdział\relax }{equation.2.1.1}{}}
\@writefile{lof}{\contentsline {figure}{\numberline {2.1}{\ignorespaces \relax \fontsize  {10.95}{13.6}\selectfont  \abovedisplayskip 11\p@ plus3\p@ minus6\p@ \abovedisplayshortskip \z@ plus3\p@ \belowdisplayshortskip 6.5\p@ plus3.5\p@ minus3\p@ \def \leftmargin \leftmargini \parsep 5\p@ plus2.5\p@ minus\p@ \topsep 10\p@ plus4\p@ minus6\p@ \itemsep 5\p@ plus2.5\p@ minus\p@ {\leftmargin \leftmargini \topsep 9\p@ plus3\p@ minus5\p@ \parsep 4.5\p@ plus2\p@ minus\p@ \itemsep \parsep }\belowdisplayskip \abovedisplayskip Schemat konstrukcyjny rezonatora po\IeC {\l }\IeC {\k a}czonego z sond\IeC {\k a} NMR.\relax }}{4}{figure.caption.1}}
\providecommand*\caption@xref[2]{\@setref\relax\@undefined{#1}}
\newlabel{fig:system_schemat2}{{2.1}{4}{\small Schemat konstrukcyjny rezonatora połączonego z sondą NMR.\relax \relax }{figure.caption.1}{}}
\@writefile{toc}{\contentsline {chapter}{\numberline {3}Podsumowanie}{5}{chapter.3}}
\@writefile{lof}{\addvspace {10\p@ }}
\@writefile{lot}{\addvspace {10\p@ }}
\newlabel{cha:podsumowanie}{{3}{5}{Podsumowanie\relax }{chapter.3}{}}
\@writefile{toc}{\contentsline {chapter}{\numberline {4}Cz\IeC {\k e}\IeC {\'s}\IeC {\'c} 2 - badania w\IeC {\l }asne}{7}{chapter.4}}
\@writefile{lof}{\addvspace {10\p@ }}
\@writefile{lot}{\addvspace {10\p@ }}
\newlabel{cha:badania_wlasne}{{4}{7}{Część 2 - badania własne\relax }{chapter.4}{}}
\@writefile{toc}{\contentsline {section}{\numberline {4.1}Przyk\IeC {\l }adowy podrozdzia\IeC {\l }}{7}{section.4.1}}
\newlabel{sec:Przykladowy_podrozdzial_3}{{4.1}{7}{Przykładowy podrozdział\relax }{section.4.1}{}}
\@writefile{lof}{\contentsline {figure}{\numberline {4.1}{\ignorespaces \relax \fontsize  {10.95}{13.6}\selectfont  \abovedisplayskip 11\p@ plus3\p@ minus6\p@ \abovedisplayshortskip \z@ plus3\p@ \belowdisplayshortskip 6.5\p@ plus3.5\p@ minus3\p@ \def \leftmargin \leftmargini \parsep 5\p@ plus2.5\p@ minus\p@ \topsep 10\p@ plus4\p@ minus6\p@ \itemsep 5\p@ plus2.5\p@ minus\p@ {\leftmargin \leftmargini \topsep 9\p@ plus3\p@ minus5\p@ \parsep 4.5\p@ plus2\p@ minus\p@ \itemsep \parsep }\belowdisplayskip \abovedisplayskip Uk\IeC {\l }ad do obserwacji zjawiska rezonansu spinowego metod\IeC {\k a} fali ci\IeC {\k a}g\IeC {\l }ej z modulacj\IeC {\k a} liniow\IeC {\k a} w dziedzinie cz\IeC {\k e}stotliwo\IeC {\'s}ci $\omega $. [\IeC {\'z}r\IeC {\'o}d\IeC {\l }a w\IeC {\l }asne]\relax }}{8}{figure.caption.2}}
\newlabel{fig:NMR_omega_sweep}{{4.1}{8}{\small Układ do obserwacji zjawiska rezonansu spinowego metodą fali ciągłej z modulacją liniową w dziedzinie częstotliwości $\omega $. [źródła własne]\relax \relax }{figure.caption.2}{}}
\@writefile{toc}{\contentsline {chapter}{\numberline {A}Dodatki}{9}{appendix.A}}
\@writefile{lof}{\addvspace {10\p@ }}
\@writefile{lot}{\addvspace {10\p@ }}
\newlabel{cha:dodatki}{{A}{9}{Dodatki\relax }{appendix.A}{}}
\@writefile{toc}{\contentsline {section}{\numberline {A.1}Przyk\IeC {\l }adowa strona z dodatkami}{9}{section.A.1}}
\newlabel{sec:Przykladowy_dodatek}{{A.1}{9}{Przykładowa strona z dodatkami\relax }{section.A.1}{}}
\bibcite{1}{1}
\bibcite{2}{2}
\@writefile{toc}{\contentsline {chapter}{Bibliografia}{11}{appendix*.3}}
\@writefile{toc}{\contentsline {chapter}{Spis rysunk\IeC {\'o}w}{12}{appendix*.3}}
