\relax 
\catcode`"\active
\ifx\hyper@anchor\@undefined
\global \let \oldcontentsline\contentsline
\gdef \contentsline#1#2#3#4{\oldcontentsline{#1}{#2}{#3}}
\global \let \oldnewlabel\newlabel
\gdef \newlabel#1#2{\newlabelxx{#1}#2}
\gdef \newlabelxx#1#2#3#4#5#6{\oldnewlabel{#1}{{#2}{#3}}}
\AtEndDocument{\let \contentsline\oldcontentsline
\let \newlabel\oldnewlabel}
\else
\global \let \hyper@last\relax 
\fi

\select@language{polish}
\@writefile{toc}{\select@language{polish}}
\@writefile{lof}{\select@language{polish}}
\@writefile{lot}{\select@language{polish}}
\citation{Nelson}
\@writefile{toc}{\contentsline {chapter}{\numberline {1}Om\IeC {\'o}wienie pracy wykonanej w ramach pracowni}{3}{chapter.1}}
\@writefile{lof}{\addvspace {10\p@ }}
\@writefile{lot}{\addvspace {10\p@ }}
\newlabel{cha:omowienie_pracy_wykonanej_w_ramach_pracowni}{{1}{3}{Omówienie pracy wykonanej w ramach pracowni\relax }{chapter.1}{}}
\@writefile{toc}{\contentsline {paragraph}{}{3}{chapter.1}}
\@writefile{toc}{\contentsline {chapter}{\numberline {2}Wprowadzenie do przegl\IeC {\k a}du tematyki aktywnej redukcji ha\IeC {\l }asu}{5}{chapter.2}}
\@writefile{lof}{\addvspace {10\p@ }}
\@writefile{lot}{\addvspace {10\p@ }}
\newlabel{cha:wprowadzenie_do_przegladu_tematyki_aktywnej_redukcji_halasu}{{2}{5}{Wprowadzenie do przeglądu tematyki aktywnej redukcji hałasu\relax }{chapter.2}{}}
\@writefile{toc}{\contentsline {section}{\numberline {2.1}Idea aktywnej redukcji ha\IeC {\l }asu}{5}{section.2.1}}
\newlabel{sec:idea_aktywnej_redukcji_halasu}{{2.1}{5}{Idea aktywnej redukcji hałasu\relax }{section.2.1}{}}
\@writefile{toc}{\contentsline {paragraph}{}{5}{section.2.1}}
\@writefile{toc}{\contentsline {paragraph}{}{5}{section.2.1}}
\citation{Kuo}
\@writefile{toc}{\contentsline {section}{\numberline {2.2}Zastosowania aktywnej redukcji ha\IeC {\l }asu}{6}{section.2.2}}
\newlabel{sec:zastosowania_aktywnej_redukcji_halasu}{{2.2}{6}{Zastosowania aktywnej redukcji hałasu\relax }{section.2.2}{}}
\@writefile{toc}{\contentsline {paragraph}{}{6}{section.2.2}}
\@writefile{toc}{\contentsline {chapter}{\numberline {3}Struktury uk\IeC {\l }ad\IeC {\'o}w ANC}{7}{chapter.3}}
\@writefile{lof}{\addvspace {10\p@ }}
\@writefile{lot}{\addvspace {10\p@ }}
\newlabel{cha:struktury_ukladow_anc}{{3}{7}{Struktury układów ANC\relax }{chapter.3}{}}
\@writefile{toc}{\contentsline {section}{\numberline {3.1}Sprz\IeC {\k e}\IeC {\.z}enie do przodu (feedforward)}{7}{section.3.1}}
\newlabel{sec:sprz_enie_do_przodu_feedforward}{{3.1}{7}{Sprzężenie do przodu (feedforward)\relax }{section.3.1}{}}
\@writefile{toc}{\contentsline {paragraph}{}{7}{section.3.1}}
\@writefile{toc}{\contentsline {paragraph}{}{7}{section.3.1}}
\@writefile{toc}{\contentsline {paragraph}{}{7}{figure.caption.1}}
\@writefile{lof}{\contentsline {figure}{\numberline {3.1}{\ignorespaces Przyk\IeC {\l }adowy system redukcji ze sprz\IeC {\k e}\IeC {\.z}eniem do przodu.\relax }}{7}{figure.caption.1}}
\providecommand*\caption@xref[2]{\@setref\relax\@undefined{#1}}
\newlabel{fig:figure3}{{3.1}{7}{Przykładowy system redukcji ze sprzężeniem do przodu.\relax \relax }{figure.caption.1}{}}
\@writefile{lof}{\contentsline {figure}{\numberline {3.2}{\ignorespaces Schemat blokowy redukcji ze sprz\IeC {\k e}\IeC {\.z}eniem do przodu.\relax }}{8}{figure.caption.2}}
\newlabel{fig:figure4}{{3.2}{8}{Schemat blokowy redukcji ze sprzężeniem do przodu.\relax \relax }{figure.caption.2}{}}
\@writefile{toc}{\contentsline {paragraph}{}{8}{figure.caption.1}}
\@writefile{toc}{\contentsline {paragraph}{}{8}{figure.caption.2}}
\@writefile{toc}{\contentsline {paragraph}{}{8}{figure.caption.2}}
\@writefile{toc}{\contentsline {paragraph}{}{8}{figure.caption.2}}
\@writefile{toc}{\contentsline {paragraph}{}{8}{figure.caption.2}}
\citation{Nelson}
\citation{Schlechter}
\@writefile{lof}{\contentsline {figure}{\numberline {3.3}{\ignorespaces Schemat blokowy redukcji przy uwzgl\IeC {\k e}dnieniu \IeC {\'s}cie\IeC {\.z}ki sprz\IeC {\k e}\IeC {\.z}enia zwrotnego.\relax }}{9}{figure.caption.3}}
\newlabel{fig:figure5}{{3.3}{9}{Schemat blokowy redukcji przy uwzględnieniu ścieżki sprzężenia zwrotnego.\relax \relax }{figure.caption.3}{}}
\@writefile{lof}{\contentsline {figure}{\numberline {3.4}{\ignorespaces Schemat blokowy redukcji przy pobieraniu ograniczonej informacji ze \IeC {\'z}r\IeC {\'o}d\IeC {\l }a.\relax }}{9}{figure.caption.4}}
\newlabel{fig:figure6}{{3.4}{9}{Schemat blokowy redukcji przy pobieraniu ograniczonej informacji ze źródła.\relax \relax }{figure.caption.4}{}}
\@writefile{toc}{\contentsline {paragraph}{}{9}{figure.caption.3}}
\@writefile{toc}{\contentsline {paragraph}{}{9}{figure.caption.4}}
\@writefile{toc}{\contentsline {paragraph}{}{9}{figure.caption.4}}
\citation{Makarewicz}
\@writefile{lof}{\contentsline {figure}{\numberline {3.5}{\ignorespaces Przyk\IeC {\l }adowy system redukcji ze sprz\IeC {\k e}\IeC {\.z}eniem zwrotnym.\relax }}{10}{figure.caption.5}}
\newlabel{fig:figure7}{{3.5}{10}{Przykładowy system redukcji ze sprzężeniem zwrotnym.\relax \relax }{figure.caption.5}{}}
\@writefile{lof}{\contentsline {figure}{\numberline {3.6}{\ignorespaces Schemat blokowy redukcji ze sprz\IeC {\k e}\IeC {\.z}eniem zwrotnym.\relax }}{10}{figure.caption.6}}
\newlabel{fig:figure8}{{3.6}{10}{Schemat blokowy redukcji ze sprzężeniem zwrotnym.\relax \relax }{figure.caption.6}{}}
\@writefile{toc}{\contentsline {paragraph}{}{10}{figure.caption.4}}
\@writefile{toc}{\contentsline {paragraph}{}{10}{figure.caption.4}}
\@writefile{toc}{\contentsline {section}{\numberline {3.2}Sprz\IeC {\k e}\IeC {\.z}enie zwrotne (feedback)}{10}{section.3.2}}
\newlabel{sec:sprz_enie_zwrotne_feedback}{{3.2}{10}{Sprzężenie zwrotne (feedback)\relax }{section.3.2}{}}
\@writefile{toc}{\contentsline {paragraph}{}{10}{figure.caption.5}}
\@writefile{toc}{\contentsline {paragraph}{}{10}{figure.caption.6}}
\citation{Kuo}
\citation{Kuo}
\citation{Kuo}
\@writefile{lof}{\contentsline {figure}{\numberline {3.7}{\ignorespaces Przyk\IeC {\l }adowy system redukcji w strukturze hybrydowej.\relax }}{11}{figure.caption.7}}
\newlabel{fig:figure9}{{3.7}{11}{Przykładowy system redukcji w strukturze hybrydowej.\relax \relax }{figure.caption.7}{}}
\@writefile{toc}{\contentsline {paragraph}{}{11}{figure.caption.6}}
\@writefile{toc}{\contentsline {section}{\numberline {3.3}Struktura hybrydowa}{11}{section.3.3}}
\newlabel{sec:struktura_hybrydowa}{{3.3}{11}{Struktura hybrydowa\relax }{section.3.3}{}}
\@writefile{toc}{\contentsline {section}{\numberline {3.4}Inne struktury}{11}{section.3.4}}
\newlabel{sec:inne_struktury}{{3.4}{11}{Inne struktury\relax }{section.3.4}{}}
\@writefile{toc}{\contentsline {section}{\numberline {3.5}Adaptacyjne algorytmy gradientowe w ANC}{12}{section.3.5}}
\newlabel{sec:adaptacyjne_algorytmy_gradientowe_w_anc}{{3.5}{12}{Adaptacyjne algorytmy gradientowe w ANC\relax }{section.3.5}{}}
\@writefile{toc}{\contentsline {section}{\numberline {3.6}Zmiana struktury: FE-LMS, FX-LMS, op\IeC {\'o}\IeC {\'z}niony LMS, FU-LMS, FFFU-LMS}{12}{section.3.6}}
\newlabel{sec:zmiana_struktury_fe_lms_fx_lms_op_niony_lms_fu_lms_fffu_lms}{{3.6}{12}{Zmiana struktury: FE-LMS, FX-LMS, opóźniony LMS, FU-LMS, FFFU-LMS\relax }{section.3.6}{}}
\citation{Makarewicz}
\citation{Nelson}
\citation{Kuo}
\citation{Schlechter}
\@writefile{lof}{\contentsline {figure}{\numberline {3.8}{\ignorespaces Schemat blokowy dla algorytm\IeC {\'o}w FE-LMS i FX-LMS.\relax }}{13}{figure.caption.8}}
\newlabel{fig:figure10}{{3.8}{13}{Schemat blokowy dla algorytmów FE-LMS i FX-LMS.\relax \relax }{figure.caption.8}{}}
\@writefile{toc}{\contentsline {paragraph}{}{13}{section.3.6}}
\@writefile{toc}{\contentsline {paragraph}{}{13}{figure.caption.8}}
\@writefile{toc}{\contentsline {paragraph}{}{13}{figure.caption.8}}
\@writefile{lof}{\contentsline {figure}{\numberline {3.9}{\ignorespaces Schemat blokowy dla algorytm\IeC {\'o}w FU-LMS i FFFU-LMS.\relax }}{14}{figure.caption.9}}
\newlabel{fig:figure11}{{3.9}{14}{Schemat blokowy dla algorytmów FU-LMS i FFFU-LMS.\relax \relax }{figure.caption.9}{}}
\@writefile{toc}{\contentsline {paragraph}{}{14}{equation.3.6.7}}
\@writefile{toc}{\contentsline {paragraph}{}{14}{equation.3.6.8}}
\@writefile{toc}{\contentsline {paragraph}{}{14}{equation.3.6.13}}
\citation{Schlechter}
\citation{Schlechter}
\citation{Makarewicz}
\citation{Schlechter}
\citation{Makarewicz}
\@writefile{toc}{\contentsline {section}{\numberline {3.7}Zmienny krok adaptacji: VS-LMS, NLMS, LMS korelacyjny}{15}{section.3.7}}
\newlabel{sec:zmienny_krok_adaptacji_vs_lms_nlms_lms_korelacyjny}{{3.7}{15}{Zmienny krok adaptacji: VS-LMS, NLMS, LMS korelacyjny\relax }{section.3.7}{}}
\@writefile{toc}{\contentsline {paragraph}{}{15}{section.3.7}}
\@writefile{toc}{\contentsline {paragraph}{}{15}{equation.3.7.17}}
\citation{Makarewicz}
\newlabel{eq:a}{{3.20}{16}{\relax }{equation.3.7.20}{}}
\newlabel{eq:b}{{3.21}{16}{\relax }{equation.3.7.21}{}}
\newlabel{eq:c}{{3.22}{16}{\relax }{equation.3.7.22}{}}
\newlabel{eq:d}{{3.23}{16}{\relax }{equation.3.7.23}{}}
\newlabel{eq:e}{{3.24}{16}{\relax }{equation.3.7.24}{}}
\@writefile{toc}{\contentsline {paragraph}{}{16}{equation.3.7.24}}
\citation{Makarewicz}
\@writefile{toc}{\contentsline {section}{\numberline {3.8}Nieszczelny LMS i LMS stochastyczny}{17}{section.3.8}}
\newlabel{sec:nieszczelny_lms_i_lms_stochastyczny}{{3.8}{17}{Nieszczelny LMS i LMS stochastyczny\relax }{section.3.8}{}}
\@writefile{toc}{\contentsline {paragraph}{}{17}{section.3.8}}
\@writefile{toc}{\contentsline {paragraph}{}{17}{equation.3.8.30}}
\citation{Makarewicz}
\citation{Makarewicz}
\@writefile{toc}{\contentsline {paragraph}{}{18}{equation.3.8.33}}
\@writefile{toc}{\contentsline {paragraph}{}{18}{equation.3.8.33}}
\@writefile{toc}{\contentsline {section}{\numberline {3.9}Redukcja z\IeC {\l }o\IeC {\.z}ono\IeC {\'s}ci numerycznej: LMS znakowy, sekwencyjny, okresowy }{18}{section.3.9}}
\newlabel{sec:redukcja_zlozonosci_numerycznej_lms_znakowy_sekwencyjny_okresowy}{{3.9}{18}{Redukcja złożoności numerycznej: LMS znakowy, sekwencyjny, okresowy \relax }{section.3.9}{}}
\@writefile{toc}{\contentsline {paragraph}{}{18}{section.3.9}}
\@writefile{toc}{\contentsline {paragraph}{}{18}{equation.3.9.37}}
\@writefile{toc}{\contentsline {paragraph}{}{18}{equation.3.9.37}}
\citation{Makarewicz}
\@writefile{toc}{\contentsline {paragraph}{}{19}{equation.3.9.37}}
\@writefile{toc}{\contentsline {paragraph}{}{19}{equation.3.9.39}}
\@writefile{toc}{\contentsline {paragraph}{}{19}{equation.3.9.41}}
\@writefile{toc}{\contentsline {paragraph}{}{19}{equation.3.9.41}}
\@writefile{toc}{\contentsline {section}{\numberline {3.10}RLS}{19}{section.3.10}}
\newlabel{sec:rls}{{3.10}{19}{RLS\relax }{section.3.10}{}}
\@writefile{toc}{\contentsline {paragraph}{}{19}{section.3.10}}
\@writefile{toc}{\contentsline {paragraph}{}{20}{equation.3.10.46}}
\@writefile{toc}{\contentsline {paragraph}{}{20}{equation.3.10.46}}
\@writefile{toc}{\contentsline {chapter}{\numberline {4}Inne algorytmy u\IeC {\.z}ywane w ANC}{21}{chapter.4}}
\@writefile{lof}{\addvspace {10\p@ }}
\@writefile{lot}{\addvspace {10\p@ }}
\newlabel{cha:inne_algorytmy_u_ywane_w_anc}{{4}{21}{Inne algorytmy używane w ANC\relax }{chapter.4}{}}
\@writefile{toc}{\contentsline {paragraph}{}{21}{chapter.4}}
\@writefile{toc}{\contentsline {paragraph}{}{21}{chapter.4}}
\citation{Nelson}
\citation{Kropp}
\citation{Gan}
\citation{Kuo2}
\@writefile{toc}{\contentsline {chapter}{\numberline {5}Podsumowanie przegl\IeC {\k a}du tematyki i plan dalszych prac}{23}{chapter.5}}
\@writefile{lof}{\addvspace {10\p@ }}
\@writefile{lot}{\addvspace {10\p@ }}
\newlabel{cha:podsumowanie_przegl_du_tematyki_i_plan_dalszych_prac}{{5}{23}{Podsumowanie przeglądu tematyki i plan dalszych prac\relax }{chapter.5}{}}
\@writefile{toc}{\contentsline {paragraph}{}{23}{chapter.5}}
\@writefile{toc}{\contentsline {paragraph}{}{23}{chapter.5}}
\@writefile{toc}{\contentsline {paragraph}{}{23}{chapter.5}}
\bibcite{Nelson}{1}
\bibcite{Kuo}{2}
\bibcite{Makarewicz}{3}
\bibcite{Schlechter}{4}
\bibcite{Kropp}{5}
\bibcite{Gan}{6}
\bibcite{Kuo2}{7}
