\relax 
\catcode`"\active
\ifx\hyper@anchor\@undefined
\global \let \oldcontentsline\contentsline
\gdef \contentsline#1#2#3#4{\oldcontentsline{#1}{#2}{#3}}
\global \let \oldnewlabel\newlabel
\gdef \newlabel#1#2{\newlabelxx{#1}#2}
\gdef \newlabelxx#1#2#3#4#5#6{\oldnewlabel{#1}{{#2}{#3}}}
\AtEndDocument{\let \contentsline\oldcontentsline
\let \newlabel\oldnewlabel}
\else
\global \let \hyper@last\relax 
\fi

\citation{Arabas}
\citation{Nelson}
\citation{Nelson}
\citation{Gwiazda}
\select@language{polish}
\@writefile{toc}{\select@language{polish}}
\@writefile{lof}{\select@language{polish}}
\@writefile{lot}{\select@language{polish}}
\@writefile{toc}{\contentsline {chapter}{\numberline {1}Om\IeC {\'o}wienie pracy wykonanej w ramach pracowni}{1}{chapter.1}}
\@writefile{lof}{\addvspace {10\p@ }}
\@writefile{lot}{\addvspace {10\p@ }}
\newlabel{cha:omowienie_pracy_wykonanej_w_ramach_pracowni}{{1}{1}{Omówienie pracy wykonanej w ramach pracowni\relax }{chapter.1}{}}
\@writefile{toc}{\contentsline {paragraph}{}{1}{chapter.1}}
\@writefile{toc}{\contentsline {paragraph}{}{1}{chapter.1}}
\@writefile{toc}{\contentsline {paragraph}{}{1}{chapter.1}}
\citation{Arabas}
\@writefile{toc}{\contentsline {chapter}{\numberline {2}Wprowadzenie do algorytm\IeC {\'o}w genetycznych}{3}{chapter.2}}
\@writefile{lof}{\addvspace {10\p@ }}
\@writefile{lot}{\addvspace {10\p@ }}
\newlabel{cha:wprowadzenie_do_algorytmow_genetycznych}{{2}{3}{Wprowadzenie do algorytmów genetycznych\relax }{chapter.2}{}}
\@writefile{toc}{\contentsline {section}{\numberline {2.1}Idea i podstawowa struktura algorytm\IeC {\'o}w genetycznych}{3}{section.2.1}}
\newlabel{sec:idea_i_podstawowa_struktura_algorytmow_genetycznych}{{2.1}{3}{Idea i podstawowa struktura algorytmów genetycznych\relax }{section.2.1}{}}
\@writefile{toc}{\contentsline {paragraph}{}{3}{section.2.1}}
\@writefile{toc}{\contentsline {paragraph}{}{3}{section.2.1}}
\citation{Fleming}
\@writefile{toc}{\contentsline {paragraph}{}{4}{section.2.1}}
\@writefile{toc}{\contentsline {section}{\numberline {2.2}Zastosowanie algorytm\IeC {\'o}w genetycznych w ANC}{4}{section.2.2}}
\newlabel{sec:zastosowanie_algorytm_w_genetycznych_w_anc}{{2.2}{4}{Zastosowanie algorytmów genetycznych w ANC\relax }{section.2.2}{}}
\@writefile{toc}{\contentsline {paragraph}{}{4}{section.2.2}}
\@writefile{toc}{\contentsline {paragraph}{}{4}{section.2.2}}
\@writefile{toc}{\contentsline {chapter}{\numberline {3}Podstawowy algorytm genetyczny w systemie ANC}{5}{chapter.3}}
\@writefile{lof}{\addvspace {10\p@ }}
\@writefile{lot}{\addvspace {10\p@ }}
\newlabel{cha:podstawowy_algorytm_genetyczny_w_systemie_anc}{{3}{5}{Podstawowy algorytm genetyczny w systemie ANC\relax }{chapter.3}{}}
\@writefile{toc}{\contentsline {section}{\numberline {3.1}Wybrane parametry filtru i uk\IeC {\l }adu ANC}{5}{section.3.1}}
\newlabel{sec:wybrane_parametry_filtru_i_ukladu_anc}{{3.1}{5}{Wybrane parametry filtru i układu ANC\relax }{section.3.1}{}}
\@writefile{toc}{\contentsline {paragraph}{}{5}{Item.2}}
\@writefile{toc}{\contentsline {paragraph}{}{5}{Item.2}}
\citation{Arabas}
\citation{Fleming}
\@writefile{toc}{\contentsline {section}{\numberline {3.2}Kryterium zatrzymania i eliminacja rozwi\IeC {\k a}za\IeC {\'n} niedopuszczalnych}{6}{section.3.2}}
\newlabel{sec:kryterium_zatrzymania_i_eliminacja_rozwiazan_niedopuszczalnych}{{3.2}{6}{Kryterium zatrzymania i eliminacja rozwiązań niedopuszczalnych\relax }{section.3.2}{}}
\@writefile{toc}{\contentsline {paragraph}{}{6}{section.3.2}}
\@writefile{toc}{\contentsline {paragraph}{}{6}{Item.5}}
\@writefile{toc}{\contentsline {section}{\numberline {3.3}Kodowanie zmiennych \IeC {\textendash } wsp\IeC {\'o}\IeC {\l }czynnik\IeC {\'o}w filtru}{6}{section.3.3}}
\newlabel{sec:kodowanie_zmiennych_wsppczynnikow_filtru}{{3.3}{6}{Kodowanie zmiennych – współczynników filtru\relax }{section.3.3}{}}
\@writefile{toc}{\contentsline {section}{\numberline {3.4}Generacja populacji bazowej}{7}{section.3.4}}
\newlabel{sec:generacja_populacji_bazowej}{{3.4}{7}{Generacja populacji bazowej\relax }{section.3.4}{}}
\@writefile{toc}{\contentsline {paragraph}{}{7}{equation.3.4.2}}
\citation{Arabas}
\@writefile{toc}{\contentsline {section}{\numberline {3.5}Ocena \IeC {\textendash } przystosowanie i funkcja celu}{8}{section.3.5}}
\newlabel{sec:ocena_przystosowanie_i_funkcja_celu}{{3.5}{8}{Ocena – przystosowanie i funkcja celu\relax }{section.3.5}{}}
\@writefile{toc}{\contentsline {paragraph}{}{8}{equation.3.5.3}}
\@writefile{toc}{\contentsline {section}{\numberline {3.6}Selekcja \IeC {\textendash } reprodukcja i sukcesja}{8}{section.3.6}}
\newlabel{sec:selekcja_reprodukcja_i_sukcesja}{{3.6}{8}{Selekcja – reprodukcja i sukcesja\relax }{section.3.6}{}}
\@writefile{toc}{\contentsline {paragraph}{}{8}{section.3.6}}
\citation{Arabas}
\@writefile{toc}{\contentsline {paragraph}{}{9}{Item.9}}
\@writefile{toc}{\contentsline {paragraph}{}{9}{Item.9}}
\@writefile{toc}{\contentsline {paragraph}{}{9}{Item.9}}
\@writefile{toc}{\contentsline {paragraph}{}{9}{Item.9}}
\@writefile{toc}{\contentsline {section}{\numberline {3.7}Operatory genetyczne}{9}{section.3.7}}
\newlabel{sec:operatory_genetyczne}{{3.7}{9}{Operatory genetyczne\relax }{section.3.7}{}}
\@writefile{toc}{\contentsline {paragraph}{}{9}{section.3.7}}
\citation{Arabas}
\@writefile{toc}{\contentsline {paragraph}{}{10}{Item.13}}
\@writefile{toc}{\contentsline {paragraph}{}{10}{Item.13}}
\@writefile{toc}{\contentsline {chapter}{\numberline {4}Implementacja symulacji w pakiecie MATLAB}{11}{chapter.4}}
\@writefile{lof}{\addvspace {10\p@ }}
\@writefile{lot}{\addvspace {10\p@ }}
\newlabel{cha:implementacja_symulacji_w_pakiecie_matlab}{{4}{11}{Implementacja symulacji w pakiecie MATLAB\relax }{chapter.4}{}}
\@writefile{toc}{\contentsline {chapter}{\numberline {5}Podsumowanie i plan dalszych prac}{13}{chapter.5}}
\@writefile{lof}{\addvspace {10\p@ }}
\@writefile{lot}{\addvspace {10\p@ }}
\newlabel{cha:podsumowanie_i_plan_dalszych_prac}{{5}{13}{Podsumowanie i plan dalszych prac\relax }{chapter.5}{}}
\bibcite{Arabas}{1}
\bibcite{Nelson}{2}
\bibcite{Gwiazda}{3}
\bibcite{Fleming}{4}
\bibcite{Kuo}{5}
