\relax 
\catcode`"\active
\ifx\hyper@anchor\@undefined
\global \let \oldcontentsline\contentsline
\gdef \contentsline#1#2#3#4{\oldcontentsline{#1}{#2}{#3}}
\global \let \oldnewlabel\newlabel
\gdef \newlabel#1#2{\newlabelxx{#1}#2}
\gdef \newlabelxx#1#2#3#4#5#6{\oldnewlabel{#1}{{#2}{#3}}}
\AtEndDocument{\let \contentsline\oldcontentsline
\let \newlabel\oldnewlabel}
\else
\global \let \hyper@last\relax 
\fi

\select@language{polish}
\@writefile{toc}{\select@language{polish}}
\@writefile{lof}{\select@language{polish}}
\@writefile{lot}{\select@language{polish}}
\newlabel{cha:chapter_name}{{}{3}{Wykaz skrótów i oznaczeń\relax }{chapter*.1}{}}
\@writefile{toc}{\contentsline {chapter}{Wykaz skr\IeC {\'o}t\IeC {\'o}w i oznacze\IeC {\'n}}{3}{chapter*.1}}
\@writefile{toc}{\contentsline {chapter}{\numberline {1}Wst\IeC {\k e}p}{5}{chapter.1}}
\@writefile{lof}{\addvspace {10\p@ }}
\@writefile{lot}{\addvspace {10\p@ }}
\newlabel{cha:chapter_name}{{1}{5}{Wstęp\relax }{chapter.1}{}}
\@writefile{toc}{\contentsline {section}{\numberline {1.1}Wprowadzenie do aktywnej redukcji ha\IeC {\l }asu}{5}{section.1.1}}
\newlabel{sec:wprowadzenie_do_tematyki_pracy}{{1.1}{5}{Wprowadzenie do aktywnej redukcji hałasu\relax }{section.1.1}{}}
\@writefile{toc}{\contentsline {section}{\numberline {1.2}Cel, za\IeC {\l }o\IeC {\.z}enia i zakres pracy}{5}{section.1.2}}
\newlabel{sec:zakres_i_za_o_enia_pracy}{{1.2}{5}{Cel, założenia i zakres pracy\relax }{section.1.2}{}}
\@writefile{toc}{\contentsline {chapter}{\numberline {2}Przegl\IeC {\k a}d rozwi\IeC {\k a}za\IeC {\'n}}{7}{chapter.2}}
\@writefile{lof}{\addvspace {10\p@ }}
\@writefile{lot}{\addvspace {10\p@ }}
\newlabel{cha:przegl_d_rozwi_za_}{{2}{7}{Przegląd rozwiązań\relax }{chapter.2}{}}
\@writefile{toc}{\contentsline {section}{\numberline {2.1}Systemy aktywnej redukcji ha\IeC {\l }asu w ochronnikach s\IeC {\l }uchu}{7}{section.2.1}}
\newlabel{sec:systemy_aktywnej_redukcji_ha_asu_w_ochronnikach_s_uchu}{{2.1}{7}{Systemy aktywnej redukcji hałasu w ochronnikach słuchu\relax }{section.2.1}{}}
\@writefile{toc}{\contentsline {section}{\numberline {2.2}Struktury sterownik\IeC {\'o}w w systemach aktywnej redukcji ha\IeC {\l }asu}{7}{section.2.2}}
\newlabel{sec:struktury_sterownik_w_w_systemach_aktywnej_redukcji_ha_asu}{{2.2}{7}{Struktury sterowników w systemach aktywnej redukcji hałasu\relax }{section.2.2}{}}
\@writefile{toc}{\contentsline {section}{\numberline {2.3}Algorytmy heurystyczne w aktywnej redukcji ha\IeC {\l }asu}{7}{section.2.3}}
\newlabel{sec:algorytmy_heurystyczne_w_aktywnej_redukcji_ha_asu}{{2.3}{7}{Algorytmy heurystyczne w aktywnej redukcji hałasu\relax }{section.2.3}{}}
\@writefile{toc}{\contentsline {chapter}{\numberline {3}Projekt symulacji systemu ANC opartego o algorytm ewolucyjny}{9}{chapter.3}}
\@writefile{lof}{\addvspace {10\p@ }}
\@writefile{lot}{\addvspace {10\p@ }}
\newlabel{cha:projekt_i_symulacja_systemu_anc_opartego_o_algorytm_ewolucyjny}{{3}{9}{Projekt symulacji systemu ANC opartego o algorytm ewolucyjny\relax }{chapter.3}{}}
\@writefile{toc}{\contentsline {section}{\numberline {3.1}Ewolucyjna strategia adaptacji macierzy kowariancji}{9}{section.3.1}}
\newlabel{sec:badane_algorytmy_i_spos_b_interpretacji_problemu}{{3.1}{9}{Ewolucyjna strategia adaptacji macierzy kowariancji\relax }{section.3.1}{}}
\@writefile{toc}{\contentsline {section}{\numberline {3.2}Wykorzystanie algorytmu ewolucyjnego w systemie ANC}{9}{section.3.2}}
\newlabel{sec:wykorzystanie_algorytmu_ewolucyjnego_w_systemie_anc}{{3.2}{9}{Wykorzystanie algorytmu ewolucyjnego w systemie ANC\relax }{section.3.2}{}}
\@writefile{toc}{\contentsline {section}{\numberline {3.3}G\IeC {\l }\IeC {\'o}wne zagadnienia symulacyjne i spos\IeC {\'o}b ich rozwi\IeC {\k a}zania}{9}{section.3.3}}
\newlabel{sec:g_wne_zagadnienia_symulacyjne_i_spos_b_ich_rozwi_zania}{{3.3}{9}{Główne zagadnienia symulacyjne i sposób ich rozwiązania\relax }{section.3.3}{}}
\@writefile{toc}{\contentsline {section}{\numberline {3.4}Zakres i parametry symulacji}{9}{section.3.4}}
\newlabel{sec:zakres_i_parametry_symulacji}{{3.4}{9}{Zakres i parametry symulacji\relax }{section.3.4}{}}
\@writefile{toc}{\contentsline {section}{\numberline {3.5}Narz\IeC {\k e}dzia i szczeg\IeC {\'o}\IeC {\l }y implementacji systemu ANC}{9}{section.3.5}}
\newlabel{sec:wykonanie_symulacji_narz_dzia_i_szczeg_y_implementacji}{{3.5}{9}{Narzędzia i szczegóły implementacji systemu ANC\relax }{section.3.5}{}}
\@writefile{toc}{\contentsline {chapter}{\numberline {4}Symulacje systemu ANC opartego o algorytm ewolucyjny}{11}{chapter.4}}
\@writefile{lof}{\addvspace {10\p@ }}
\@writefile{lot}{\addvspace {10\p@ }}
\newlabel{cha:symulacje_systemu_anc_opartego_o_algorytm_ewolucyjny}{{4}{11}{Symulacje systemu ANC opartego o algorytm ewolucyjny\relax }{chapter.4}{}}
\@writefile{toc}{\contentsline {section}{\numberline {4.1}Przebieg pomiar\IeC {\'o}w}{11}{section.4.1}}
\newlabel{sec:przebieg_pomiar_w}{{4.1}{11}{Przebieg pomiarów\relax }{section.4.1}{}}
\@writefile{toc}{\contentsline {section}{\numberline {4.2}Wyniki pomiar\IeC {\'o}w z komentarzem}{11}{section.4.2}}
\newlabel{sec:wyniki_pomiar_w_z_komentarzem}{{4.2}{11}{Wyniki pomiarów z komentarzem\relax }{section.4.2}{}}
\@writefile{toc}{\contentsline {section}{\numberline {4.3}Ocena rozwi\IeC {\k a}zania}{11}{section.4.3}}
\newlabel{sec:ocena_rozwi_zania}{{4.3}{11}{Ocena rozwiązania\relax }{section.4.3}{}}
\@writefile{toc}{\contentsline {chapter}{\numberline {5}Wnioski i podsumowanie}{13}{chapter.5}}
\@writefile{lof}{\addvspace {10\p@ }}
\@writefile{lot}{\addvspace {10\p@ }}
\newlabel{cha:wnioski_i_podsumowanie}{{5}{13}{Wnioski i podsumowanie\relax }{chapter.5}{}}
\@writefile{toc}{\contentsline {chapter}{Bibliografia}{15}{chapter*.2}}
\@writefile{toc}{\contentsline {chapter}{Dodatek \numberline {A}Fragmenty kodu wykorzystywanego przy symulacjach}{17}{appendix.A}}
\@writefile{lof}{\addvspace {10\p@ }}
\@writefile{lot}{\addvspace {10\p@ }}
\newlabel{cha:za_cznik_a_fragmenty_kodu_wykorzystywanego_przy_symulacjach}{{A}{17}{Fragmenty kodu wykorzystywanego przy symulacjach\relax }{appendix.A}{}}
\@writefile{toc}{\contentsline {chapter}{Dodatek \numberline {A}Fragmenty kodu zaimplementowanego w prototypie}{19}{appendix.A}}
\@writefile{lof}{\addvspace {10\p@ }}
\@writefile{lot}{\addvspace {10\p@ }}
\newlabel{cha:za_cznik_b_fragmenty_kodu_zaimplementowanego_w_prototypie}{{A}{19}{Fragmenty kodu zaimplementowanego w prototypie\relax }{appendix.A}{}}
\@writefile{toc}{\contentsline {chapter}{Dodatek \numberline {A}Pe\IeC {\l }ne wyniki pomiar\IeC {\'o}w weryfikacyjnych}{21}{appendix.A}}
\@writefile{lof}{\addvspace {10\p@ }}
\@writefile{lot}{\addvspace {10\p@ }}
\newlabel{cha:za_cznik_c_pe_ne_wyniki_pomiar_w_weryfikacyjnych}{{A}{21}{Pełne wyniki pomiarów weryfikacyjnych\relax }{appendix.A}{}}
