\relax 
\catcode`"\active
\ifx\hyper@anchor\@undefined
\global \let \oldcontentsline\contentsline
\gdef \contentsline#1#2#3#4{\oldcontentsline{#1}{#2}{#3}}
\global \let \oldnewlabel\newlabel
\gdef \newlabel#1#2{\newlabelxx{#1}#2}
\gdef \newlabelxx#1#2#3#4#5#6{\oldnewlabel{#1}{{#2}{#3}}}
\AtEndDocument{\let \contentsline\oldcontentsline
\let \newlabel\oldnewlabel}
\else
\global \let \hyper@last\relax 
\fi

\select@language{polish}
\@writefile{toc}{\select@language{polish}}
\@writefile{lof}{\select@language{polish}}
\@writefile{lot}{\select@language{polish}}
\@writefile{lof}{\contentsline {figure}{\numberline {1}{\ignorespaces System ANC ze sprz\IeC {\k e}\IeC {\.z}eniem zwrotnym w sytuacji idealnej - nie ma potrzeby adaptacji.\relax }}{1}{figure.caption.1}}
\@writefile{lof}{\contentsline {figure}{\numberline {2}{\ignorespaces System FXLMS - ANC ze sprz\IeC {\k e}\IeC {\.z}eniem zwrotnym i filtrowaniem sygna\IeC {\l }u $x(n)$.\relax }}{1}{figure.caption.2}}
\@writefile{lof}{\contentsline {figure}{\numberline {3}{\ignorespaces System ANC ze sprz\IeC {\k e}\IeC {\.z}eniem do przodu wykorzystuj\IeC {\k a}cy algorytm CMA-ES.\relax }}{2}{figure.caption.3}}
\@writefile{toc}{\contentsline {paragraph}{}{3}{figure.caption.4}}
\@writefile{toc}{\contentsline {paragraph}{}{3}{figure.caption.4}}
\@writefile{toc}{\contentsline {paragraph}{}{3}{figure.caption.4}}
\@writefile{toc}{\contentsline {paragraph}{}{3}{figure.caption.4}}
\@writefile{lof}{\contentsline {figure}{\numberline {4}{\ignorespaces System ANC ze sprz\IeC {\k e}\IeC {\.z}eniem zwrotnym wykorzystuj\IeC {\k a}cy algorytm CMA-ES.\relax }}{4}{figure.caption.4}}
\bibcite{2012-Particle-Swarm-Optimization-ANC}{1}
\bibcite{2012-Optimization-of-IIR-Using-PSO}{2}
\bibcite{2012-Particle-Swarm-Optimization-Decentralized-Nonlinear}{3}
\bibcite{2011-Development-of-low-complexity-evolutionary}{4}
\bibcite{2011-Comparison-of-Performance-and-Computational-Complexity}{5}
\bibcite{2010-Adaptive-reduced-feedback-FLNN}{6}
\bibcite{2010-Active-Noise-Cancellation-Without-Secondary-Path}{7}
\bibcite{2008-Adaptive-Noise-Canceller-PSO}{8}
\bibcite{2007-Accuracy-and-Performance-Evaluation}{9}
\bibcite{2006-Genetic-Optimization-in-Nonlinear-Systems}{10}
\@writefile{toc}{\contentsline {chapter}{Bibliografia}{5}{chapter*.5}}
\bibcite{2006-A-PSO-approach-for-non-linear-ANC}{11}
\bibcite{1999-Genetic-Adaptive-IIR-Filtering}{12}
\bibcite{1999-Feedforward-IIR-ANC-Using-Genetic-Algorithm}{13}
\bibcite{1999-Genetic-Based-Control-Structure}{14}
\bibcite{1998-Design-and-Optimization-IIR-Using-ANC}{15}
\bibcite{1992-Applications-Simulated-Annealing}{16}
\bibcite{2013-Advances-in-active-noise-control}{17}
\bibcite{2012-Implementation-challenges-for-feedback-ANC}{18}
\bibcite{2011-Fundamenatals-of-ANC}{19}
\bibcite{2011-Active-noise-control-in-headsets-new-approach}{20}
\bibcite{2011-ANC-Headsets-Low-Cost-Microcontroller}{21}
\bibcite{2010-Microcontroller-based-ANC}{22}
\bibcite{2010-ANC-Open-Problems-Challenges}{23}
\bibcite{2008-Improved-Active-Noise-Control-Algorithm-Without-Secondary-Path-Identification}{24}
\bibcite{2007-New-block-filtered-X-LMS}{25}
\bibcite{2006-Design-of-noise-reduction-headphone}{26}
\bibcite{2006-ANC-Headphone-Applications}{27}
\bibcite{2005-Different-Active-Noise-Control-Algorithms}{28}
\bibcite{2005-Optimal-Filter-Design-For-ANC-Cepstral-Domain}{29}
\bibcite{2005-Integrated-Headsets-Using-Adaptive-Hybrid ANC}{30}
\bibcite{2005-Active-Noise-Cancellation-Headset}{31}
\bibcite{2005-Robust-Hybrid-Feedback-ANC}{32}
\bibcite{2003-Integrated-ANC-Communication-Headsets}{33}
\bibcite{2003-ANC-Without-Secondary-Path-Using-Frequency-Domain}{34}
\bibcite{2001-Inverse-Structure-for-ANC}{35}
\bibcite{2001-Frequency-Domain-ANC}{36}
\bibcite{2001-Controller-Design-for-ANC-Headphones}{37}
\bibcite{1999-ANC-headset-for-crew-members}{38}
\bibcite{1999-ANC-Tutorial-Review}{39}
\bibcite{1997-Frequency-Domain-Periodic-ANC}{40}
\bibcite{1995-Modeling-Optimal-Control}{41}
\bibcite{1993-New-Two-Sensor-ANC}{42}
\bibcite{2000-ANC-Without-Secondary-Path-Model}{43}
\bibcite{2002-Integrated-Audio-And-ANC-Headsets}{44}
\bibcite{2003-Comparative-Study-Wideband-Single-Reference-ANC}{45}
\bibcite{2010-Novel-ANC-Using-Neural-Networks}{46}
\bibcite{1999-Down-with-noise}{47}
\bibcite{2005-Adaptive-Feedback-ANC-Headset}{48}
\bibcite{2002-Evolutionary-algorithms-in-control-systems}{49}
\bibcite{2008-Covariance-Matrix-Adaptation-Revisited}{50}
\bibcite{2008-Simple-Modification-in-CMA-ES}{51}
\bibcite{2008-Robust-optimization}{52}
\bibcite{2006-Evolution-Strategies-for-Robust-Optimization}{53}
\bibcite{2006-CMA-ES-Comparing-Review}{54}
\bibcite{2006-Improving-Evolution-Strategies}{55}
\bibcite{2005-restart-CMA-ES}{56}
\bibcite{}{57}
