\relax 
\catcode`"\active
\ifx\hyper@anchor\@undefined
\global \let \oldcontentsline\contentsline
\gdef \contentsline#1#2#3#4{\oldcontentsline{#1}{#2}{#3}}
\global \let \oldnewlabel\newlabel
\gdef \newlabel#1#2{\newlabelxx{#1}#2}
\gdef \newlabelxx#1#2#3#4#5#6{\oldnewlabel{#1}{{#2}{#3}}}
\AtEndDocument{\let \contentsline\oldcontentsline
\let \newlabel\oldnewlabel}
\else
\global \let \hyper@last\relax 
\fi

\citation{1999-ANC-Tutorial-Review}
\citation{2005-Robust-Hybrid-Feedback-ANC}
\citation{2005-Adaptive-Feedback-ANC-Headset}
\citation{2006-ANC-Headphone-Applications}
\citation{2006-Design-of-noise-reduction-headphone}
\citation{2011-ANC-Headsets-Low-Cost-Microcontroller}
\citation{1999-ANC-Tutorial-Review}
\citation{2000-ANC-Without-Secondary-Path-Model}
\citation{2001-Frequency-Domain-ANC}
\citation{2003-ANC-Without-Secondary-Path-Using-Frequency-Domain}
\citation{2006-A-PSO-approach-for-non-linear-ANC}
\citation{2006-Genetic-Optimization-in-Nonlinear-Systems}
\citation{2008-Improved-Active-Noise-Control-Algorithm-Without-Secondary-Path-Identification}
\citation{2010-Active-Noise-Cancellation-Without-Secondary-Path}
\citation{2010-Novel-ANC-Using-Neural-Networks}
\citation{2012-Particle-Swarm-Optimization-ANC}
\select@language{polish}
\@writefile{toc}{\select@language{polish}}
\@writefile{lof}{\select@language{polish}}
\@writefile{lot}{\select@language{polish}}
\newlabel{sec:diagram_i_opis_struktury_anc}{{}{1}{Diagram i opis proponowanej struktury ANC\relax }{section*.1}{}}
\@writefile{lof}{\contentsline {figure}{\numberline {1}{\ignorespaces Struktura adaptacyjnego systemu ANC ze sprz\IeC {\k e}\IeC {\.z}eniem zwrotnym wykorzystuj\IeC {\k a}ca algorytm CMA-ES.\relax }}{2}{figure.caption.2}}
\providecommand*\caption@xref[2]{\@setref\relax\@undefined{#1}}
\newlabel{fig:cmaes-anc}{{1}{2}{Struktura adaptacyjnego systemu ANC ze sprzężeniem zwrotnym wykorzystująca algorytm CMA-ES.\relax \relax }{figure.caption.2}{}}
\@writefile{toc}{\contentsline {paragraph}{}{2}{section*.3}}
\citation{2012-Particle-Swarm-Optimization-ANC}
\citation{2012-Particle-Swarm-Optimization-ANC}
\citation{2012-Implementation-challenges-for-feedback-ANC}
\@writefile{lof}{\contentsline {figure}{\numberline {2}{\ignorespaces System ANC ze sprz\IeC {\k e}\IeC {\.z}eniem zwrotnym i algorytmem FXLMS.\relax }}{3}{figure.caption.5}}
\newlabel{fig:fxlms-anc}{{2}{3}{System ANC ze sprzężeniem zwrotnym i algorytmem FXLMS.\relax \relax }{figure.caption.5}{}}
\@writefile{lof}{\contentsline {figure}{\numberline {3}{\ignorespaces System ANC ze sprz\IeC {\k e}\IeC {\.z}eniem do przodu i algorytmem FXLMS.\relax }}{3}{figure.caption.6}}
\newlabel{fig:fxlms-anc-ff}{{3}{3}{System ANC ze sprzężeniem do przodu i algorytmem FXLMS.\relax \relax }{figure.caption.6}{}}
\@writefile{toc}{\contentsline {paragraph}{}{3}{figure.caption.6}}
\citation{2012-Particle-Swarm-Optimization-ANC}
\citation{2012-Particle-Swarm-Optimization-ANC}
\citation{2012-Particle-Swarm-Optimization-ANC}
\@writefile{lof}{\contentsline {figure}{\numberline {4}{\ignorespaces System ANC ze sprz\IeC {\k e}\IeC {\.z}eniem do przodu wykorzystuj\IeC {\k a}cy algorytm PSO, zaprezentowany w \cite  {2012-Particle-Swarm-Optimization-ANC}.\relax }}{4}{figure.caption.8}}
\newlabel{fig:pso-anc}{{4}{4}{System ANC ze sprzężeniem do przodu wykorzystujący algorytm PSO, zaprezentowany w \cite {2012-Particle-Swarm-Optimization-ANC}.\relax \relax }{figure.caption.8}{}}
\@writefile{toc}{\contentsline {paragraph}{}{4}{figure.caption.8}}
\citation{2012-Particle-Swarm-Optimization-ANC}
\@writefile{toc}{\contentsline {paragraph}{}{5}{section*.9}}
\@writefile{lof}{\contentsline {figure}{\numberline {5}{\ignorespaces Struktura adaptacyjnego systemu ANC ze sprz\IeC {\k e}\IeC {\.z}eniem zwrotnym wykorzystuj\IeC {\k a}ca algorytm CMA-ES bez estymacji \IeC {\'s}cie\IeC {\.z}ki wt\IeC {\'o}rnej.\relax }}{6}{figure.caption.11}}
\newlabel{fig:cmaes-anc-ns}{{5}{6}{Struktura adaptacyjnego systemu ANC ze sprzężeniem zwrotnym wykorzystująca algorytm CMA-ES bez estymacji ścieżki wtórnej.\relax \relax }{figure.caption.11}{}}
\@writefile{toc}{\contentsline {paragraph}{}{6}{figure.caption.11}}
\citation{2008-Covariance-Matrix-Adaptation-Revisited}
\citation{2011-ANC-Headsets-Low-Cost-Microcontroller}
\citation{2005-Robust-Hybrid-Feedback-ANC}
\citation{2005-Adaptive-Feedback-ANC-Headset}
\citation{2005-Active-Noise-Cancellation-Headset}
\citation{2008-Adaptive-Noise-Canceller-PSO}
\citation{2012-Particle-Swarm-Optimization-ANC}
\citation{2010-Active-Noise-Cancellation-Without-Secondary-Path}
\@writefile{toc}{\contentsline {paragraph}{}{7}{section*.12}}
\@writefile{toc}{\contentsline {paragraph}{}{7}{section*.13}}
\citation{2004-Evaluating-CMA-ES-Multimodal-Test-Functions}
\citation{2004-Learning-Probability-Distributions}
\citation{2008-Simple-Modification-in-CMA-ES}
\citation{2011-CMA-ES-Tutorial}
\@writefile{toc}{\contentsline {paragraph}{}{8}{section*.14}}
\newlabel{eq:default_lambda}{{1}{9}{\relax }{equation.0.1}{}}
\newlabel{eq:z_k}{{8}{10}{\relax }{equation.0.8}{}}
\newlabel{eq:y_k}{{9}{10}{\relax }{equation.0.9}{}}
\newlabel{eq:x_k}{{10}{10}{\relax }{equation.0.10}{}}
\newlabel{eq:y_w}{{12}{11}{\relax }{equation.0.12}{}}
\newlabel{eq:m}{{13}{11}{\relax }{equation.0.13}{}}
\newlabel{eq:p_sig}{{14}{11}{\relax }{equation.0.14}{}}
\newlabel{eq:pc_adaptation}{{15}{11}{\relax }{equation.0.15}{}}
\citation{2001-Completely-Derandomized-Self-Adaptation}
\citation{2005-restart-CMA-ES}
\citation{2006-Improving-Evolution-Strategies}
\citation{2006-CMA-ES-Comparing-Review}
\citation{2008-Simple-Modification-in-CMA-ES}
\citation{2008-Covariance-Matrix-Adaptation-Revisited}
\citation{2005-restart-CMA-ES}
\citation{2010-ANC-Open-Problems-Challenges}
\newlabel{eq:C_adaptation}{{16}{12}{\relax }{equation.0.16}{}}
\newlabel{eq:sig}{{17}{12}{\relax }{equation.0.17}{}}
\@writefile{toc}{\contentsline {paragraph}{}{12}{section*.15}}
\@writefile{toc}{\contentsline {paragraph}{}{12}{section*.16}}
\citation{2012-Particle-Swarm-Optimization-ANC}
\bibcite{2005-restart-CMA-ES}{1}
\bibcite{2008-Covariance-Matrix-Adaptation-Revisited}{2}
\bibcite{2010-Active-Noise-Cancellation-Without-Secondary-Path}{3}
\@writefile{toc}{\contentsline {chapter}{Bibliografia}{13}{section*.17}}
\bibcite{2011-ANC-Headsets-Low-Cost-Microcontroller}{4}
\bibcite{2005-Active-Noise-Cancellation-Headset}{5}
\bibcite{2005-Adaptive-Feedback-ANC-Headset}{6}
\bibcite{2012-Particle-Swarm-Optimization-Decentralized-Nonlinear}{7}
\bibcite{2001-Completely-Derandomized-Self-Adaptation}{8}
\bibcite{2004-Evaluating-CMA-ES-Multimodal-Test-Functions}{9}
\bibcite{2006-CMA-ES-Comparing-Review}{10}
\bibcite{2011-CMA-ES-Tutorial}{11}
\bibcite{2006-Improving-Evolution-Strategies}{12}
\bibcite{2000-ANC-Without-Secondary-Path-Model}{13}
\bibcite{2001-Frequency-Domain-ANC}{14}
\bibcite{2003-ANC-Without-Secondary-Path-Using-Frequency-Domain}{15}
\bibcite{2004-Learning-Probability-Distributions}{16}
\bibcite{2012-Implementation-challenges-for-feedback-ANC}{17}
\bibcite{1999-ANC-Tutorial-Review}{18}
\bibcite{2006-Design-of-noise-reduction-headphone}{19}
\bibcite{2006-ANC-Headphone-Applications}{20}
\bibcite{2010-ANC-Open-Problems-Challenges}{21}
\bibcite{2006-A-PSO-approach-for-non-linear-ANC}{22}
\bibcite{2008-Simple-Modification-in-CMA-ES}{23}
\bibcite{2012-Particle-Swarm-Optimization-ANC}{24}
\bibcite{2006-Genetic-Optimization-in-Nonlinear-Systems}{25}
\bibcite{2005-Robust-Hybrid-Feedback-ANC}{26}
\bibcite{2008-Improved-Active-Noise-Control-Algorithm-Without-Secondary-Path-Identification}{27}
\bibcite{2008-Adaptive-Noise-Canceller-PSO}{28}
\bibcite{2010-Novel-ANC-Using-Neural-Networks}{29}
